<svg width="210" height="200" viewBox="0 0 210 200" fill="none" xmlns="http://www.w3.org/2000/svg">
<rect x="0.171875" width="209.828" height="200" rx="10" fill="#EEF1F6"/>
<mask id="mask0" style="mask-type:alpha" maskUnits="userSpaceOnUse" x="0" y="0" width="210" height="200">
<rect width="209.828" height="200" rx="10" fill="#E3EBFA"/>
</mask>
<g mask="url(#mask0)">
<mask id="mask1" style="mask-type:alpha" maskUnits="userSpaceOnUse" x="-3" y="100" width="216" height="100">
<rect x="-2.45508" y="100" width="214.739" height="100" rx="4" fill="white"/>
</mask>
<g mask="url(#mask1)">
<path d="M52.4218 158.13L-0.921864 193.965C-1.83367 194.577 -2.38062 195.604 -2.38062 196.702C-2.38062 198.524 -0.904209 200 0.917023 200H204.43C209.699 200 213.971 195.728 213.971 190.459V180.918V172.252C213.971 165.724 210.785 159.606 205.436 155.864L174.346 134.114C167.865 129.58 159.32 129.292 152.547 133.379L92.2055 169.796L74.6782 158.097C67.9379 153.598 59.1488 153.611 52.4218 158.13Z" fill="white"/>
<path d="M129.881 194.945L92.2055 169.796M92.2055 169.796L74.6782 158.097C67.9379 153.598 59.1488 153.611 52.4218 158.13L-0.921864 193.965C-1.83367 194.578 -2.38062 195.604 -2.38062 196.702V196.702C-2.38062 198.524 -0.90421 200 0.917023 200H204.43C209.699 200 213.971 195.728 213.971 190.459V190.459V180.918V172.252C213.971 165.724 210.785 159.606 205.436 155.864L174.346 134.114C167.865 129.58 159.32 129.292 152.547 133.379L92.2055 169.796Z" stroke="white" stroke-width="3"/>
<path d="M81.8349 127.232C81.8349 132.755 77.3423 137.232 71.8004 137.232C66.2585 137.232 61.7659 132.755 61.7659 127.232C61.7659 121.709 66.2585 117.232 71.8004 117.232C77.3423 117.232 81.8349 121.709 81.8349 127.232ZM64.7762 127.232C64.7762 131.098 67.9211 134.232 71.8004 134.232C75.6797 134.232 78.8246 131.098 78.8246 127.232C78.8246 123.366 75.6797 120.232 71.8004 120.232C67.9211 120.232 64.7762 123.366 64.7762 127.232Z" fill="white"/>
</g>
</g>
</svg>
