<svg width="21" height="21" viewBox="0 0 21 21" fill="none" xmlns="http://www.w3.org/2000/svg">
<path d="M10.4999 7.16663V13.8333" stroke="#323232" stroke-width="1.2" stroke-linecap="round" stroke-linejoin="round"/>
<path d="M13.8334 10.5H7.16675" stroke="#323232" stroke-width="1.2" stroke-linecap="round" stroke-linejoin="round"/>
<path fill-rule="evenodd" clip-rule="evenodd" d="M10.5 18V18C6.3575 18 3 14.6425 3 10.5V10.5C3 6.3575 6.3575 3 10.5 3V3C14.6425 3 18 6.3575 18 10.5V10.5C18 14.6425 14.6425 18 10.5 18Z" stroke="#323232" stroke-width="1.2" stroke-linecap="round" stroke-linejoin="round"/>
</svg>
