<svg width="28" height="29" viewBox="0 0 28 29" fill="none" xmlns="http://www.w3.org/2000/svg">
<path d="M0 0.121094H18C23.5228 0.121094 28 4.59825 28 10.1211V28.1211H10C4.47715 28.1211 0 23.6439 0 18.1211V0.121094Z" fill="#A2B1BA"/>
<path fill-rule="evenodd" clip-rule="evenodd" d="M18.667 19.3711H9.33366C8.68908 19.3711 8.16699 18.849 8.16699 18.2044V10.0378C8.16699 9.39318 8.68908 8.87109 9.33366 8.87109H18.667C19.3116 8.87109 19.8337 9.39318 19.8337 10.0378V18.2044C19.8337 18.849 19.3116 19.3711 18.667 19.3711Z" stroke="white" stroke-width="1.2" stroke-linecap="round" stroke-linejoin="round"/>
<path d="M8.16699 11.7878H19.8337" stroke="white" stroke-width="1.2" stroke-linecap="round" stroke-linejoin="round"/>
<path d="M11.667 11.7878L12.2503 8.87109" stroke="white" stroke-width="1.2" stroke-linecap="round" stroke-linejoin="round"/>
<path d="M15.75 11.7878L16.3333 8.87109" stroke="white" stroke-width="1.2" stroke-linecap="round" stroke-linejoin="round"/>
</svg>
